{"data":[{"id":3,"role_id":2,"name":"Developer","active":1,"email":"developer@example.com","email_verified_at":null,"created_at":"2023-02-05T09:45:18.000000Z","updated_at":"2023-02-05T09:45:18.000000Z"},{"id":2,"role_id":5,"name":"Product owner","active":1,"email":"product_ower@example.com","email_verified_at":null,"created_at":"2023-02-05T09:44:02.000000Z","updated_at":"2023-02-05T09:44:02.000000Z"}],"pagination":{"total_count":4,"total_pages":2,"current_page":2,"limit":2}}